<?xml version="1.0" encoding="UTF-8" standalone="no"?>
<!-- Created with Inkscape (http://www.inkscape.org/) -->

<svg
   xmlns:dc="http://purl.org/dc/elements/1.1/"
   xmlns:cc="http://creativecommons.org/ns#"
   xmlns:rdf="http://www.w3.org/1999/02/22-rdf-syntax-ns#"
   xmlns:svg="http://www.w3.org/2000/svg"
   xmlns="http://www.w3.org/2000/svg"
   xmlns:xlink="http://www.w3.org/1999/xlink"
   xmlns:sodipodi="http://sodipodi.sourceforge.net/DTD/sodipodi-0.dtd"
   xmlns:inkscape="http://www.inkscape.org/namespaces/inkscape"
   width="85"
   height="100"
   viewBox="0 0 22.489583 26.458332"
   version="1.1"
   id="svg973"
   inkscape:version="0.92.4 (5da689c313, 2019-01-14)"
   sodipodi:docname="MenuButton.svg">
  <title
     id="title1534">Menu Button</title>
  <defs
     id="defs967" />
  <sodipodi:namedview
     id="base"
     pagecolor="#ffffff"
     bordercolor="#666666"
     borderopacity="1.0"
     inkscape:pageopacity="0.0"
     inkscape:pageshadow="2"
     inkscape:zoom="1.4"
     inkscape:cx="75.287965"
     inkscape:cy="52.716862"
     inkscape:document-units="mm"
     inkscape:current-layer="layer1"
     showgrid="false"
     fit-margin-top="0"
     fit-margin-left="0"
     fit-margin-right="0"
     fit-margin-bottom="0"
     units="px"
     inkscape:window-width="1920"
     inkscape:window-height="1017"
     inkscape:window-x="-8"
     inkscape:window-y="-8"
     inkscape:window-maximized="1"
     inkscape:pagecheckerboard="true" />
  <metadata
     id="metadata970">
    <rdf:RDF>
      <cc:Work
         rdf:about="">
        <dc:format>image/svg+xml</dc:format>
        <dc:type
           rdf:resource="http://purl.org/dc/dcmitype/StillImage" />
        <dc:title>Menu Button</dc:title>
      </cc:Work>
    </rdf:RDF>
  </metadata>
  <g
     inkscape:label="Layer 1"
     inkscape:groupmode="layer"
     id="layer1"
     transform="translate(-118.77901,-110.65774)">
    <g
       transform="matrix(1.02414,0,0,0.99794642,-145.63611,378.02023)"
       style="display:inline;stroke-width:0.98916048;stroke:#ffffff"
       id="g30165">
      <ellipse
         ry="7.9266486"
         rx="7.938839"
         cy="-259.46259"
         cx="269.16232"
         id="path30125"
         style="fill:none;fill-opacity:1;stroke:#ffffff;stroke-width:1.04686153;stroke-linecap:round;stroke-linejoin:round;stroke-miterlimit:4;stroke-dasharray:none;stroke-dashoffset:0;stroke-opacity:1;paint-order:fill markers stroke" />
      <ellipse
         ry="2.6981232"
         rx="2.7022729"
         cy="-246.73811"
         cx="261.40829"
         id="path30125-3"
         style="fill:none;fill-opacity:1;stroke:#ffffff;stroke-width:1.04686153;stroke-linecap:round;stroke-linejoin:round;stroke-miterlimit:4;stroke-dasharray:none;stroke-dashoffset:0;stroke-opacity:1;paint-order:fill markers stroke" />
      <use
         style="stroke-width:1.04686153;stroke-miterlimit:4;stroke-dasharray:none;stroke:#ffffff"
         height="100%"
         width="100%"
         transform="translate(7.7540453,2.1166667)"
         id="use30153"
         xlink:href="#path30125-3"
         y="0"
         x="0" />
      <use
         style="stroke-width:1.04686153;stroke-miterlimit:4;stroke-dasharray:none;stroke:#ffffff"
         height="100%"
         width="100%"
         transform="translate(15.508091)"
         id="use30155"
         xlink:href="#path30125-3"
         y="0"
         x="0" />
      <path
         inkscape:transform-center-x="-0.71713959"
         d="m 272.47176,-259.45248 c 0,0.27991 -4.60588,2.93912 -4.84829,2.79916 -0.24242,-0.13996 -0.24242,-5.45837 0,-5.59833 0.24241,-0.13995 4.84829,2.51925 4.84829,2.79917 z"
         inkscape:randomized="0"
         inkscape:rounded="0.05"
         inkscape:flatsided="true"
         sodipodi:arg2="1.0471976"
         sodipodi:arg1="0"
         sodipodi:r2="1.6160969"
         sodipodi:r1="3.2321935"
         sodipodi:cy="-259.45248"
         sodipodi:cx="269.23956"
         sodipodi:sides="3"
         id="path30157"
         style="fill:none;fill-opacity:1;stroke:#ffffff;stroke-width:1.04686153;stroke-linecap:round;stroke-linejoin:round;stroke-miterlimit:4;stroke-dasharray:none;stroke-dashoffset:0;stroke-opacity:1;paint-order:fill markers stroke"
         sodipodi:type="star" />
    </g>
  </g>
</svg>
